02 Take Home Exercise 2 – R for Geospatial Analytics
…
HCSA_2022 <- wm_2022_idw %>% 
  mutate(local_Gi = local_gstar_perm(
    no_cases, nb, wts, nsim = 99),
         .before = 1) %>%
  unnest(local_Gi)

# Let us get a preview of the results (using 2017 as an example)
HCSA_2017

Simple feature collection with 77 features and 18 fields
Geometry type: MULTIPOLYGON
Dimension:     XY
Bounding box:  xmin: 97.34336 ymin: 5.613038 xmax: 105.637 ymax: 20.46507
Geodetic CRS:  WGS 84
# A tibble: 77 × 19
   gi_star cluster    e_gi    var_gi std_dev p_value p_sim p_folded_sim skewness
     <dbl> <fct>     <dbl>     <dbl>   <dbl>   <dbl> <dbl>        <dbl>    <dbl>
 1 -0.465  High    0.0151  0.000133   -0.667   0.505  0.66         0.33     1.84
 2  0.0453 Low     0.00986 0.000352    0.212   0.832  0.44         0.22     3.11
 3 -0.260  Low     0.0114  0.000179   -0.157   0.875  0.9          0.45     2.38
 4 -0.485  Low     0.0154  0.000203   -0.575   0.565  0.84         0.42     1.03
 5 -1.00   Low     0.0126  0.000120   -0.978   0.328  0.2          0.1      1.19
 6 -0.852  Low     0.0100  0.000163   -0.723   0.470  0.04         0.02     2.10
 7 -1.05   Low     0.0117  0.000123   -0.876   0.381  0.24         0.12     1.38
 8 -0.929  Low     0.00892 0.0000947  -0.821   0.411  0.04         0.02     2.02
 9 -0.832  Low     0.0102  0.000183   -0.678   0.498  0.04         0.02     2.36
10 -0.792  Low     0.0134  0.000251   -0.677   0.498  0.64         0.32     2.12
# ℹ 67 more rows
# ℹ 10 more variables: kurtosis <dbl>, nb <nb>, wt <list>, ADM1_EN <chr>,
#   ADM1_TH <chr>, ADM1_PCODE <chr>, fiscal_year <dbl>,
#   types_of_drug_offenses <chr>, no_cases <dbl>, geometry <MULTIPOLYGON [°]>
…
